<svg
  width="144"
  height="144"
  viewBox="-10 -10 320 320"
  xmlns="http://www.w3.org/2000/svg"
  stroke="#000"
  stroke-width="3"
  stroke-linecap="round"
  fill="transparent"
>
  <defs>
    <circle id="playerO" cx="0" cy="0" r="30"/>
    <path id="playerX" d="M -30,-30 l 60,60 m 0,-60 l -60,60"/>
  </defs>

  <rect x="-10" y="-10" width="320" height="320" stroke="transparent" fill="#fff"/>

  <line x1="100" y1="0" x2="100" y2="300" stroke="#000"/>
  <line x1="200" y1="0" x2="200" y2="300" stroke="#000"/>
  <line x1="0" y1="100" x2="300" y2="100" stroke="#000"/>
  <line x1="0" y1="200" x2="300" y2="200" stroke="#000"/>

  <g transform="translate(50,50)">
    <use href="#playerX"/>
  </g>
  <g transform="translate(150,150)">
    <use href="#playerX"/>
  </g>
  <g transform="translate(50,250)">
    <use href="#playerX"/>
  </g>
  <g transform="translate(150,50)">
    <use href="#playerO"/>
  </g>
  <g transform="translate(250,50)">
    <use href="#playerO"/>
  </g>
  <g transform="translate(50,150)">
    <use href="#playerO"/>
  </g>
</svg>
